﻿  Using 'git status' to determine working set for adaptive non-unity build (D:\MyGames\SB_v\SnakeSB).
  Invalidating makefile for SnakeSBEditor (SnakeBase.cpp modified)
  Building SnakeSBEditor...
  Using Visual Studio 2019 14.28.29335 toolchain (C:\Program Files (x86)\Microsoft Visual Studio\2019\Community\VC\Tools\MSVC\14.28.29333) and Windows 10.0.18362.0 SDK (C:\Program Files (x86)\Windows Kits\10).
  Building 4 actions with 12 processes...
    [1/4] SnakeBase.cpp
    [2/4] UE4Editor-SnakeSB.lib
       Creating library D:\MyGames\SB_v\SnakeSB\Intermediate\Build\Win64\UE4Editor\Development\SnakeSB\UE4Editor-SnakeSB.lib and object D:\MyGames\SB_v\SnakeSB\Intermediate\Build\Win64\UE4Editor\Development\SnakeSB\UE4Editor-SnakeSB.exp
    [3/4] UE4Editor-SnakeSB.dll
       Creating library D:\MyGames\SB_v\SnakeSB\Intermediate\Build\Win64\UE4Editor\Development\SnakeSB\UE4Editor-SnakeSB.suppressed.lib and object D:\MyGames\SB_v\SnakeSB\Intermediate\Build\Win64\UE4Editor\Development\SnakeSB\UE4Editor-SnakeSB.suppressed.exp
    [4/4] SnakeSBEditor.target
  Total time in Parallel executor: 3,75 seconds
  Total execution time: 5,23 seconds
